<svg width="22" height="22" viewBox="0 0 22 22" fill="white" xmlns="http://www.w3.org/2000/svg">
<path d="M22 11C22 13.2103 22 14.7009 21.9486 15.5234C21.8458 17.528 21.2804 19.0701 20.1495 20.1495C19.0187 21.229 17.528 21.8458 15.5234 21.9486C14.7009 22 13.1589 22 11 22C8.78972 22 7.29906 22 6.47663 21.9486C4.47196 21.8458 2.92991 21.2804 1.85047 20.1495C0.771028 19.0701 0.154206 17.528 0.0514021 15.5234C1.93715e-07 14.7009 0 13.1589 0 11C0 8.84112 1.93715e-07 7.29906 0.0514021 6.47663C0.154206 4.47196 0.719627 2.92991 1.85047 1.85047C2.92991 0.771028 4.47196 0.154206 6.47663 0.0514021C7.29906 1.93715e-07 8.84112 0 11 0C13.2103 0 14.7009 1.93715e-07 15.5234 0.0514021C17.528 0.154206 19.0701 0.719627 20.1495 1.85047C21.229 2.98131 21.8458 4.47196 21.9486 6.47663C21.9486 7.29906 22 8.78972 22 11ZM12.0794 1.95327C11.4112 1.95327 11.0514 1.95327 11 1.95327C10.9486 1.95327 10.5888 1.95327 9.92056 1.95327C9.25234 1.95327 8.73832 1.95327 8.42991 1.95327C8.07009 1.95327 7.60748 1.95327 7.04206 2.00467C6.47664 2.00467 5.96262 2.05607 5.5514 2.15888C5.14019 2.21028 4.78037 2.31308 4.52337 2.41589C4.06075 2.6215 3.64953 2.8785 3.23832 3.23832C2.8785 3.59813 2.6215 4.00935 2.41589 4.52337C2.31308 4.78037 2.21028 5.14019 2.15888 5.5514C2.10748 5.96262 2.05607 6.42523 2.00467 7.04206C2.00467 7.60748 1.95327 8.07009 1.95327 8.42991C1.95327 8.78972 1.95327 9.30374 1.95327 9.92056C1.95327 10.5888 1.95327 10.9486 1.95327 11C1.95327 11.0514 1.95327 11.4112 1.95327 12.0794C1.95327 12.7477 1.95327 13.2617 1.95327 13.5701C1.95327 13.9299 1.95327 14.3925 2.00467 14.9579C2.00467 15.5234 2.05607 16.0374 2.15888 16.4486C2.26168 16.8598 2.31308 17.2196 2.41589 17.4766C2.6215 17.9393 2.8785 18.3505 3.23832 18.7617C3.59813 19.1215 4.00935 19.3785 4.52337 19.5841C4.78037 19.6869 5.14019 19.7897 5.5514 19.8411C5.96262 19.8925 6.42523 19.9439 7.04206 19.9953C7.65888 20.0467 8.07009 20.0467 8.42991 20.0467C8.78972 20.0467 9.30374 20.0467 9.92056 20.0467C10.5888 20.0467 10.9486 20.0467 11 20.0467C11.0514 20.0467 11.4112 20.0467 12.0794 20.0467C12.7477 20.0467 13.2617 20.0467 13.5701 20.0467C13.9299 20.0467 14.3925 20.0467 14.9579 19.9953C15.5234 19.9953 16.0374 19.9439 16.4486 19.8411C16.8598 19.7897 17.2196 19.6869 17.4766 19.5841C17.9393 19.3785 18.3505 19.1215 18.7617 18.7617C19.1215 18.4019 19.3785 17.9907 19.5841 17.4766C19.6869 17.2196 19.7897 16.8598 19.8411 16.4486C19.8925 16.0374 19.9439 15.5748 19.9953 14.9579C19.9953 14.3925 20.0467 13.9299 20.0467 13.5701C20.0467 13.2103 20.0467 12.6963 20.0467 12.0794C20.0467 11.4112 20.0467 11.0514 20.0467 11C20.0467 10.9486 20.0467 10.5888 20.0467 9.92056C20.0467 9.25234 20.0467 8.73832 20.0467 8.42991C20.0467 8.07009 20.0467 7.60748 19.9953 7.04206C19.9953 6.47664 19.9439 5.96262 19.8411 5.5514C19.7897 5.14019 19.6869 4.78037 19.5841 4.52337C19.3785 4.06075 19.1215 3.64953 18.7617 3.23832C18.4019 2.8785 17.9907 2.6215 17.4766 2.41589C17.2196 2.31308 16.8598 2.21028 16.4486 2.15888C16.0374 2.10748 15.5748 2.05607 14.9579 2.00467C14.3925 2.00467 13.9299 1.95327 13.5701 1.95327C13.2617 1.95327 12.7477 1.95327 12.0794 1.95327ZM14.9579 6.99065C16.0374 8.07009 16.6028 9.40654 16.6028 11C16.6028 12.5935 16.0374 13.8785 14.9579 15.0093C13.8785 16.0888 12.5421 16.6542 10.9486 16.6542C9.35514 16.6542 8.07009 16.0888 6.93925 15.0093C5.85981 13.9299 5.29439 12.5935 5.29439 11C5.29439 9.40654 5.85981 8.1215 6.93925 6.99065C8.01869 5.91121 9.35514 5.34579 10.9486 5.34579C12.5421 5.34579 13.8785 5.85981 14.9579 6.99065ZM13.5701 13.5701C14.2897 12.8505 14.6495 11.9766 14.6495 11C14.6495 10.0234 14.2897 9.09813 13.5701 8.3785C12.8505 7.65888 11.9766 7.29906 10.9486 7.29906C9.92056 7.29906 9.04673 7.65888 8.3271 8.3785C7.60748 9.09813 7.24766 9.97196 7.24766 11C7.24766 12.028 7.60748 12.9019 8.3271 13.5701C9.04673 14.2897 9.92056 14.6495 10.9486 14.6495C11.9766 14.6495 12.8505 14.2897 13.5701 13.5701ZM17.785 4.16355C18.0421 4.42056 18.1963 4.72897 18.1963 5.08879C18.1963 5.4486 18.0421 5.75701 17.785 6.01402C17.528 6.27103 17.2196 6.42523 16.8598 6.42523C16.5 6.42523 16.1916 6.27103 15.9346 6.01402C15.6776 5.75701 15.5234 5.4486 15.5234 5.08879C15.5234 4.72897 15.6776 4.42056 15.9346 4.16355C16.1916 3.90654 16.5 3.75234 16.8598 3.75234C17.2196 3.75234 17.528 3.90654 17.785 4.16355Z"/>
</svg>
